@startuml

title __GUI's Class Diagram__\n

  namespace fr.cnam.foad.nfa035.badges.gui {
    class fr.cnam.foad.nfa035.badges.gui.BadgeSizeCellRenderer {
        ~ originBackground : Color
        ~ originForeground : Color
        + BadgeSizeCellRenderer()
        + getTableCellRendererComponent()
        - humanReadableByteCountBin()
    }
  }
  

  namespace fr.cnam.foad.nfa035.badges.gui {
    class fr.cnam.foad.nfa035.badges.gui.BadgeWalletGUI {
        {static} - RESOURCES_PATH : String
        - button1 : JButton
        - panel1 : JPanel
        - table1 : JTable
        + BadgeWalletGUI()
        + getIcon()
        {static} + main()
    }
  }
  

  namespace fr.cnam.foad.nfa035.badges.gui {
    class fr.cnam.foad.nfa035.badges.gui.BadgesModel {
        - badges : List<DigitalBadge>
        - entetes : String[]
        {static} - serialVersionUID : long
        + BadgesModel()
        + getBadges()
        + getColumnClass()
        + getColumnCount()
        + getColumnName()
        + getRowCount()
        + getValueAt()
    }
  }
  

  namespace fr.cnam.foad.nfa035.badges.gui {
    class fr.cnam.foad.nfa035.badges.gui.DefaultBadgeCellRenderer {
        ~ originForeground : Color
        + DefaultBadgeCellRenderer()
        + getTableCellRendererComponent()
    }
  }


  fr.cnam.foad.nfa035.badges.gui.BadgeSizeCellRenderer -up-|> javax.swing.table.DefaultTableCellRenderer
  fr.cnam.foad.nfa035.badges.gui.BadgesModel -up-|> javax.swing.table.AbstractTableModel
  fr.cnam.foad.nfa035.badges.gui.DefaultBadgeCellRenderer -up-|> javax.swing.table.DefaultTableCellRenderer


right footer


PlantUML diagram generated by SketchIt! (https://bitbucket.org/pmesmeur/sketch.it)
For more information about this tool, please contact philippe.mesmeur@gmail.com
endfooter

@enduml
